src/arm_multi.vcd
$date
	Sun Jul 18 08:01:10 2021
$end
$version
	Icarus Verilog
$end
$timescale
	1s
$end
$scope module testbench $end
$var wire 32 ! WriteData [31:0] $end
$var wire 1 " MemWrite $end
$var wire 32 # Adr [31:0] $end
$var reg 1 $ clk $end
$var reg 1 % reset $end
$scope module dut $end
$var wire 1 $ clk $end
$var wire 1 % reset $end
$var wire 32 & WriteData [31:0] $end
$var wire 32 ' ReadData [31:0] $end
$var wire 1 " MemWrite $end
$var wire 32 ( Adr [31:0] $end
$scope module arm $end
$var wire 1 $ clk $end
$var wire 1 % reset $end
$var wire 32 ) WriteData [31:0] $end
$var wire 2 * ResultSrc [1:0] $end
$var wire 1 + RegWrite $end
$var wire 2 , RegSrc [1:0] $end
$var wire 32 - ReadData [31:0] $end
$var wire 1 . PCWrite $end
$var wire 1 " MemWrite $end
$var wire 32 / Instr [31:0] $end
$var wire 2 0 ImmSrc [1:0] $end
$var wire 1 1 IRWrite $end
$var wire 1 2 AdrSrc $end
$var wire 32 3 Adr [31:0] $end
$var wire 2 4 ALUSrcB [1:0] $end
$var wire 2 5 ALUSrcA [1:0] $end
$var wire 4 6 ALUFlags [3:0] $end
$var wire 2 7 ALUControl [1:0] $end
$scope module c $end
$var wire 20 8 Instr [31:12] $end
$var wire 1 $ clk $end
$var wire 1 % reset $end
$var wire 2 9 ResultSrc [1:0] $end
$var wire 1 + RegWrite $end
$var wire 1 : RegW $end
$var wire 2 ; RegSrc [1:0] $end
$var wire 1 . PCWrite $end
$var wire 1 < PCS $end
$var wire 1 = NextPC $end
$var wire 1 " MemWrite $end
$var wire 1 > MemW $end
$var wire 2 ? ImmSrc [1:0] $end
$var wire 1 1 IRWrite $end
$var wire 2 @ FlagW [1:0] $end
$var wire 1 2 AdrSrc $end
$var wire 2 A ALUSrcB [1:0] $end
$var wire 2 B ALUSrcA [1:0] $end
$var wire 4 C ALUFlags [3:0] $end
$var wire 2 D ALUControl [1:0] $end
$scope module cl $end
$var wire 4 E Cond [3:0] $end
$var wire 1 " MemWrite $end
$var wire 1 . PCWrite $end
$var wire 1 + RegWrite $end
$var wire 1 $ clk $end
$var wire 1 % reset $end
$var wire 1 : RegW $end
$var wire 1 < PCS $end
$var wire 1 = NextPC $end
$var wire 1 > MemW $end
$var wire 4 F Flags [3:0] $end
$var wire 2 G FlagWrite [1:0] $end
$var wire 2 H FlagW [1:0] $end
$var wire 1 I CondExReg $end
$var wire 1 J CondEx $end
$var wire 4 K ALUFlags [3:0] $end
$scope module cc $end
$var wire 4 L Cond [3:0] $end
$var wire 4 M Flags [3:0] $end
$var wire 1 N ge $end
$var wire 1 O zero $end
$var wire 1 P overflow $end
$var wire 1 Q neg $end
$var wire 1 R carry $end
$var reg 1 J CondEx $end
$upscope $end
$scope module condexreg $end
$var wire 1 $ clk $end
$var wire 1 J d $end
$var wire 1 % reset $end
$var reg 1 I q $end
$upscope $end
$scope module flagsreg0 $end
$var wire 1 $ clk $end
$var wire 2 S d [1:0] $end
$var wire 1 T en $end
$var wire 1 % reset $end
$var reg 2 U q [1:0] $end
$upscope $end
$scope module flagsreg1 $end
$var wire 1 $ clk $end
$var wire 2 V d [1:0] $end
$var wire 1 W en $end
$var wire 1 % reset $end
$var reg 2 X q [1:0] $end
$upscope $end
$scope module flagwritereg $end
$var wire 1 $ clk $end
$var wire 2 Y d [1:0] $end
$var wire 1 % reset $end
$var reg 2 Z q [1:0] $end
$upscope $end
$upscope $end
$scope module dec $end
$var wire 6 [ Funct [5:0] $end
$var wire 2 \ ImmSrc [1:0] $end
$var wire 2 ] Op [1:0] $end
$var wire 1 < PCS $end
$var wire 4 ^ Rd [3:0] $end
$var wire 1 $ clk $end
$var wire 1 % reset $end
$var wire 2 _ ResultSrc [1:0] $end
$var wire 1 : RegW $end
$var wire 2 ` RegSrc [1:0] $end
$var wire 1 = NextPC $end
$var wire 1 > MemW $end
$var wire 1 1 IRWrite $end
$var wire 1 a Branch $end
$var wire 1 2 AdrSrc $end
$var wire 2 b ALUSrcB [1:0] $end
$var wire 2 c ALUSrcA [1:0] $end
$var wire 1 d ALUOp $end
$var reg 2 e ALUControl [1:0] $end
$var reg 2 f FlagW [1:0] $end
$scope module fsm $end
$var wire 6 g Funct [5:0] $end
$var wire 2 h Op [1:0] $end
$var wire 1 $ clk $end
$var wire 1 % reset $end
$var wire 2 i ResultSrc [1:0] $end
$var wire 1 : RegW $end
$var wire 1 = NextPC $end
$var wire 1 > MemW $end
$var wire 1 1 IRWrite $end
$var wire 1 a Branch $end
$var wire 1 2 AdrSrc $end
$var wire 2 j ALUSrcB [1:0] $end
$var wire 2 k ALUSrcA [1:0] $end
$var wire 1 d ALUOp $end
$var reg 13 l controls [12:0] $end
$var reg 4 m nextstate [3:0] $end
$var reg 4 n state [3:0] $end
$upscope $end
$upscope $end
$upscope $end
$scope module dp $end
$var wire 2 o ALUControl [1:0] $end
$var wire 2 p ALUSrcA [1:0] $end
$var wire 2 q ALUSrcB [1:0] $end
$var wire 1 2 AdrSrc $end
$var wire 1 1 IRWrite $end
$var wire 2 r ImmSrc [1:0] $end
$var wire 1 . PCWrite $end
$var wire 2 s RegSrc [1:0] $end
$var wire 1 + RegWrite $end
$var wire 2 t ResultSrc [1:0] $end
$var wire 1 $ clk $end
$var wire 1 % reset $end
$var wire 32 u WriteData [31:0] $end
$var wire 32 v SrcB [31:0] $end
$var wire 32 w SrcA [31:0] $end
$var wire 32 x Result [31:0] $end
$var wire 32 y ReadData [31:0] $end
$var wire 32 z RD2 [31:0] $end
$var wire 32 { RD1 [31:0] $end
$var wire 4 | RA2 [3:0] $end
$var wire 4 } RA1 [3:0] $end
$var wire 32 ~ PC [31:0] $end
$var wire 32 !" Instr [31:0] $end
$var wire 32 "" ExtImm [31:0] $end
$var wire 32 #" Data [31:0] $end
$var wire 32 $" Adr [31:0] $end
$var wire 32 %" ALUResult [31:0] $end
$var wire 32 &" ALUOut [31:0] $end
$var wire 4 '" ALUFlags [3:0] $end
$var wire 32 (" A [31:0] $end
$scope module alu $end
$var wire 2 )" ALUControl [1:0] $end
$var wire 1 *" carry $end
$var wire 1 +" overflow $end
$var wire 1 ," zero $end
$var wire 33 -" sum [32:0] $end
$var wire 1 ." neg $end
$var wire 32 /" b [31:0] $end
$var wire 32 0" a [31:0] $end
$var wire 4 1" ALUFlags [3:0] $end
$var reg 32 2" Result [31:0] $end
$upscope $end
$scope module aluoutmux $end
$var wire 32 3" d2 [31:0] $end
$var wire 2 4" s [1:0] $end
$var wire 32 5" y [31:0] $end
$var wire 32 6" d1 [31:0] $end
$var wire 32 7" d0 [31:0] $end
$upscope $end
$scope module aluoutreg $end
$var wire 1 $ clk $end
$var wire 32 8" d [31:0] $end
$var wire 1 % reset $end
$var reg 32 9" q [31:0] $end
$upscope $end
$scope module datareg $end
$var wire 1 $ clk $end
$var wire 1 % reset $end
$var wire 32 :" d [31:0] $end
$var reg 32 ;" q [31:0] $end
$upscope $end
$scope module ext $end
$var wire 2 <" ImmSrc [1:0] $end
$var wire 24 =" Instr [23:0] $end
$var reg 32 >" ExtImm [31:0] $end
$upscope $end
$scope module instrreg $end
$var wire 1 $ clk $end
$var wire 1 1 en $end
$var wire 1 % reset $end
$var wire 32 ?" d [31:0] $end
$var reg 32 @" q [31:0] $end
$upscope $end
$scope module pcmux $end
$var wire 32 A" d1 [31:0] $end
$var wire 1 2 s $end
$var wire 32 B" y [31:0] $end
$var wire 32 C" d0 [31:0] $end
$upscope $end
$scope module pcreg $end
$var wire 1 $ clk $end
$var wire 32 D" d [31:0] $end
$var wire 1 . en $end
$var wire 1 % reset $end
$var reg 32 E" q [31:0] $end
$upscope $end
$scope module ra1mux $end
$var wire 4 F" d0 [3:0] $end
$var wire 4 G" d1 [3:0] $end
$var wire 1 H" s $end
$var wire 4 I" y [3:0] $end
$upscope $end
$scope module ra2mux $end
$var wire 4 J" d0 [3:0] $end
$var wire 4 K" d1 [3:0] $end
$var wire 1 L" s $end
$var wire 4 M" y [3:0] $end
$upscope $end
$scope module rd1reg $end
$var wire 1 $ clk $end
$var wire 1 % reset $end
$var wire 32 N" d [31:0] $end
$var reg 32 O" q [31:0] $end
$upscope $end
$scope module rd2reg $end
$var wire 1 $ clk $end
$var wire 1 % reset $end
$var wire 32 P" d [31:0] $end
$var reg 32 Q" q [31:0] $end
$upscope $end
$scope module rf $end
$var wire 1 $ clk $end
$var wire 32 R" r15 [31:0] $end
$var wire 4 S" ra1 [3:0] $end
$var wire 4 T" ra2 [3:0] $end
$var wire 4 U" wa3 [3:0] $end
$var wire 32 V" wd3 [31:0] $end
$var wire 1 + we3 $end
$var wire 32 W" rd2 [31:0] $end
$var wire 32 X" rd1 [31:0] $end
$upscope $end
$scope module srcAmux $end
$var wire 32 Y" d0 [31:0] $end
$var wire 32 Z" d1 [31:0] $end
$var wire 32 [" d2 [31:0] $end
$var wire 2 \" s [1:0] $end
$var wire 32 ]" y [31:0] $end
$upscope $end
$scope module srcBmux $end
$var wire 32 ^" d0 [31:0] $end
$var wire 32 _" d1 [31:0] $end
$var wire 32 `" d2 [31:0] $end
$var wire 2 a" s [1:0] $end
$var wire 32 b" y [31:0] $end
$upscope $end
$upscope $end
$upscope $end
$scope module mem $end
$var wire 32 c" a [31:0] $end
$var wire 1 $ clk $end
$var wire 32 d" rd [31:0] $end
$var wire 32 e" wd [31:0] $end
$var wire 1 " we $end
$upscope $end
$upscope $end
$upscope $end
$enddefinitions $end
#0
$dumpvars
b0 e"
b11100000010011110000000000001111 d"
b0 c"
b100 b"
b10 a"
b100 `"
b0 _"
b0 ^"
b0 ]"
b1 \"
b0 ["
b0 Z"
b0 Y"
bx X"
bx W"
b100 V"
b0 U"
b0 T"
b0 S"
b100 R"
b0 Q"
bx P"
b0 O"
bx N"
b0 M"
0L"
b0 K"
b0 J"
b0 I"
0H"
b1111 G"
b0 F"
b0 E"
b100 D"
b0 C"
b0 B"
b100 A"
b0 @"
b11100000010011110000000000001111 ?"
b0 >"
b0 ="
b0 <"
b0 ;"
b11100000010011110000000000001111 :"
b0 9"
b100 8"
b0 7"
b0 6"
b100 5"
b10 4"
b100 3"
b100 2"
b0 1"
b0 0"
b100 /"
0."
b100 -"
0,"
0+"
0*"
b0 )"
b0 ("
b0 '"
b0 &"
b100 %"
b0 $"
b0 #"
b0 ""
b0 !"
b0 ~
b0 }
b0 |
bx {
bx z
b11100000010011110000000000001111 y
b100 x
b0 w
b100 v
b0 u
b10 t
b0 s
b0 r
b10 q
b1 p
b0 o
b0 n
b1 m
b1000101001100 l
b1 k
b10 j
b10 i
b0 h
b0 g
b0 f
b0 e
0d
b1 c
b10 b
0a
b0 `
b10 _
b0 ^
b0 ]
b0 \
b0 [
b0 Z
b0 Y
b0 X
0W
b0 V
b0 U
0T
b0 S
0R
0Q
0P
0O
1N
b0 M
b0 L
b0 K
0J
0I
b0 H
b0 G
b0 F
b0 E
b0 D
b0 C
b1 B
b10 A
b0 @
b0 ?
0>
1=
0<
b0 ;
0:
b10 9
b0 8
b0 7
b0 6
b1 5
b10 4
b0 3
02
11
b0 0
b0 /
1.
b11100000010011110000000000001111 -
b0 ,
0+
b10 *
b0 )
b0 (
b11100000010011110000000000001111 '
b0 &
1%
1$
b0 #
0"
b0 !
$end
#5
0$
#10
1$
#15
0$
#20
1$
#22
0%
#25
0$
#30
b1000 x
b1000 5"
b1000 A"
b1000 D"
b1000 R"
b1000 V"
b1000 z
b1000 P"
b1000 W"
b1000 {
b1000 N"
b1000 X"
1J
b1000 %"
b1000 2"
b1000 3"
b1000 8"
0.
b1111 ""
b1111 >"
b1111 _"
b1111 |
b1111 M"
b1111 T"
b1111 }
b1111 I"
b1111 S"
b100 [
b100 g
b1110 E
b1110 L
b1000 -"
b100 w
b100 0"
b100 ]"
b11100010100000000010000000000101 '
b11100010100000000010000000000101 -
b11100010100000000010000000000101 y
b11100010100000000010000000000101 :"
b11100010100000000010000000000101 ?"
b11100010100000000010000000000101 d"
0=
01
b10011110000000000001111 ="
b1111 J"
b1111 F"
b11100000010011110000 8
b100 #
b100 (
b100 3
b100 $"
b100 B"
b100 c"
b1001100 l
b110 m
b100 &"
b100 7"
b100 9"
b100 ["
bx !
bx &
bx )
bx u
bx Q"
bx ^"
bx e"
bx ("
bx O"
bx Y"
b11100000010011110000000000001111 #"
b11100000010011110000000000001111 6"
b11100000010011110000000000001111 ;"
b11100000010011110000000000001111 /
b11100000010011110000000000001111 !"
b11100000010011110000000000001111 @"
b100 ~
b100 C"
b100 E"
b100 Z"
b1 n
1$
#35
0$
#40
b1 V
b0 {
b0 N"
b0 X"
b0 z
b0 P"
b0 W"
b1000 w
b1000 0"
b1000 ]"
b100 6
b100 C
b100 K
b100 '"
b100 1"
1,"
b0 x
b0 5"
b0 A"
b0 D"
b0 R"
b0 V"
b1000 v
b1000 /"
b1000 b"
b0 %"
b0 2"
b0 3"
b0 8"
b0 -"
b1 7
b1 D
b1 e
b1 o
b1 )"
b0 5
b0 B
b0 c
b0 k
b0 p
b0 \"
b0 4
b0 A
b0 b
b0 j
b0 q
b0 a"
1d
b1000001 l
b1000 m
b110 n
1I
b11100010100000000010000000000101 #"
b11100010100000000010000000000101 6"
b11100010100000000010000000000101 ;"
b1000 ("
b1000 O"
b1000 Y"
b1000 !
b1000 &
b1000 )
b1000 u
b1000 Q"
b1000 ^"
b1000 e"
b1000 &"
b1000 7"
b1000 9"
b1000 ["
1$
#45
0$
#50
1+"
b11 S
1*"
1."
b10 V
b1011 6
b1011 C
b1011 K
b1011 '"
b1011 1"
0,"
b11111111111111111111111111110001 %"
b11111111111111111111111111110001 2"
b11111111111111111111111111110001 3"
b11111111111111111111111111110001 8"
1+
b1111 v
b1111 /"
b1111 b"
b111111111111111111111111111110001 -"
b0 w
b0 0"
b0 ]"
1:
b0 *
b0 9
b0 _
b0 i
b0 t
b0 4"
b1 4
b1 A
b1 b
b1 j
b1 q
b1 a"
b1000000011 l
b0 m
b0 &"
b0 7"
b0 9"
b0 ["
b0 !
b0 &
b0 )
b0 u
b0 Q"
b0 ^"
b0 e"
b0 ("
b0 O"
b0 Y"
b1000 n
1$
#55
0$
#60
b0 S
b0 V
0*"
0+"
b0 6
b0 C
b0 K
b0 '"
b0 1"
0."
b100 w
b100 0"
b100 ]"
b100 v
b100 /"
b100 b"
b1000 %"
b1000 2"
b1000 3"
b1000 8"
b1000 -"
1.
0+
b0 7
b0 D
b0 e
b0 o
b0 )"
b1000 {
b1000 N"
b1000 X"
b1000 z
b1000 P"
b1000 W"
1=
0:
11
b10 *
b10 9
b10 _
b10 i
b10 t
b10 4"
b1 5
b1 B
b1 c
b1 k
b1 p
b1 \"
b10 4
b10 A
b10 b
b10 j
b10 q
b10 a"
0d
b1000 x
b1000 5"
b1000 A"
b1000 D"
b1000 R"
b1000 V"
b1000101001100 l
b1 m
b0 n
b11111111111111111111111111110001 &"
b11111111111111111111111111110001 7"
b11111111111111111111111111110001 9"
b11111111111111111111111111110001 ["
1$
#65
0$
#70
b1100 x
b1100 5"
b1100 A"
b1100 D"
b1100 R"
b1100 V"
bx z
bx P"
bx W"
b0 {
b0 N"
b0 X"
b1100 %"
b1100 2"
b1100 3"
b1100 8"
0.
b101 ""
b101 >"
b101 _"
b101 |
b101 M"
b101 T"
b0 }
b0 I"
b0 S"
b101000 [
b101000 g
b10 ^
b1100 -"
b1000 w
b1000 0"
b1000 ]"
b11100010100000000011000000001100 '
b11100010100000000011000000001100 -
b11100010100000000011000000001100 y
b11100010100000000011000000001100 :"
b11100010100000000011000000001100 ?"
b11100010100000000011000000001100 d"
0=
01
b100000000010000000000101 ="
b10 U"
b10 K"
b101 J"
b0 F"
b11100010100000000010 8
b1000 #
b1000 (
b1000 3
b1000 $"
b1000 B"
b1000 c"
b1001100 l
b111 m
b1000 &"
b1000 7"
b1000 9"
b1000 ["
b1000 !
b1000 &
b1000 )
b1000 u
b1000 Q"
b1000 ^"
b1000 e"
b1000 ("
b1000 O"
b1000 Y"
b11100010100000000010000000000101 /
b11100010100000000010000000000101 !"
b11100010100000000010000000000101 @"
b1000 ~
b1000 C"
b1000 E"
b1000 Z"
b1 n
1$
#75
0$
#80
b101 x
b101 5"
b101 A"
b101 D"
b101 R"
b101 V"
b101 %"
b101 2"
b101 3"
b101 8"
b0 w
b0 0"
b0 ]"
b101 -"
b101 v
b101 /"
b101 b"
b0 5
b0 B
b0 c
b0 k
b0 p
b0 \"
b1 4
b1 A
b1 b
b1 j
b1 q
b1 a"
1d
b1000011 l
b1000 m
b111 n
b11100010100000000011000000001100 #"
b11100010100000000011000000001100 6"
b11100010100000000011000000001100 ;"
b0 ("
b0 O"
b0 Y"
bx !
bx &
bx )
bx u
bx Q"
bx ^"
bx e"
b1100 &"
b1100 7"
b1100 9"
b1100 ["
1$
#85
0$
#90
1+
1:
b0 *
b0 9
b0 _
b0 i
b0 t
b0 4"
b1000000011 l
b0 m
b101 &"
b101 7"
b101 9"
b101 ["
b1000 n
1$
#95
0$
#100
b1100 x
b1100 5"
b1100 A"
b1100 D"
b1100 R"
b1100 V"
b1100 %"
b1100 2"
b1100 3"
b1100 8"
b1000 w
b1000 0"
b1000 ]"
b1100 -"
b100 v
b100 /"
b100 b"
1.
0+
1=
0:
11
b10 *
b10 9
b10 _
b10 i
b10 t
b10 4"
b1 5
b1 B
b1 c
b1 k
b1 p
b1 \"
b10 4
b10 A
b10 b
b10 j
b10 q
b10 a"
0d
b1000101001100 l
b1 m
b0 n
1$
#105
0$
#110
b10000 x
b10000 5"
b10000 A"
b10000 D"
b10000 R"
b10000 V"
b10000 %"
b10000 2"
b10000 3"
b10000 8"
0.
b1100 ""
b1100 >"
b1100 _"
b1100 |
b1100 M"
b1100 T"
b11 ^
b10000 -"
b1100 w
b1100 0"
b1100 ]"
b11100010010000110111000000001001 '
b11100010010000110111000000001001 -
b11100010010000110111000000001001 y
b11100010010000110111000000001001 :"
b11100010010000110111000000001001 ?"
b11100010010000110111000000001001 d"
0=
01
b100000000011000000001100 ="
b11 U"
b11 K"
b1100 J"
b11100010100000000011 8
b1100 #
b1100 (
b1100 3
b1100 $"
b1100 B"
b1100 c"
b1001100 l
b111 m
b1100 &"
b1100 7"
b1100 9"
b1100 ["
b11100010100000000011000000001100 /
b11100010100000000011000000001100 !"
b11100010100000000011000000001100 @"
b1100 ~
b1100 C"
b1100 E"
b1100 Z"
b1 n
1$
#115
0$
#120
b1100 x
b1100 5"
b1100 A"
b1100 D"
b1100 R"
b1100 V"
b1100 %"
b1100 2"
b1100 3"
b1100 8"
b0 w
b0 0"
b0 ]"
b1100 -"
b1100 v
b1100 /"
b1100 b"
b0 5
b0 B
b0 c
b0 k
b0 p
b0 \"
b1 4
b1 A
b1 b
b1 j
b1 q
b1 a"
1d
b1000011 l
b1000 m
b111 n
b11100010010000110111000000001001 #"
b11100010010000110111000000001001 6"
b11100010010000110111000000001001 ;"
b10000 &"
b10000 7"
b10000 9"
b10000 ["
1$
#125
0$
#130
1+
1:
b0 *
b0 9
b0 _
b0 i
b0 t
b0 4"
b1000000011 l
b0 m
b1100 &"
b1100 7"
b1100 9"
b1100 ["
b1000 n
1$
#135
0$
#140
b10000 x
b10000 5"
b10000 A"
b10000 D"
b10000 R"
b10000 V"
b10000 %"
b10000 2"
b10000 3"
b10000 8"
b1100 w
b1100 0"
b1100 ]"
b10000 -"
b100 v
b100 /"
b100 b"
1.
0+
1=
0:
11
b10 *
b10 9
b10 _
b10 i
b10 t
b10 4"
b1 5
b1 B
b1 c
b1 k
b1 p
b1 \"
b10 4
b10 A
b10 b
b10 j
b10 q
b10 a"
0d
b1000101001100 l
b1 m
b0 n
1$
#145
0$
#150
b10100 x
b10100 5"
b10100 A"
b10100 D"
b10100 R"
b10100 V"
b1100 {
b1100 N"
b1100 X"
b10100 %"
b10100 2"
b10100 3"
b10100 8"
0.
b1001 ""
b1001 >"
b1001 _"
b1001 |
b1001 M"
b1001 T"
b11 }
b11 I"
b11 S"
b100100 [
b100100 g
b111 ^
b10100 -"
b10000 w
b10000 0"
b10000 ]"
b11100001100001110100000000000010 '
b11100001100001110100000000000010 -
b11100001100001110100000000000010 y
b11100001100001110100000000000010 :"
b11100001100001110100000000000010 ?"
b11100001100001110100000000000010 d"
0=
01
b10000110111000000001001 ="
b111 U"
b111 K"
b1001 J"
b11 F"
b11100010010000110111 8
b10000 #
b10000 (
b10000 3
b10000 $"
b10000 B"
b10000 c"
b1001100 l
b111 m
b10000 &"
b10000 7"
b10000 9"
b10000 ["
b11100010010000110111000000001001 /
b11100010010000110111000000001001 !"
b11100010010000110111000000001001 @"
b10000 ~
b10000 C"
b10000 E"
b10000 Z"
b1 n
1$
#155
0$
#160
b1100 w
b1100 0"
b1100 ]"
b11 x
b11 5"
b11 A"
b11 D"
b11 R"
b11 V"
b1001 v
b1001 /"
b1001 b"
b11 %"
b11 2"
b11 3"
b11 8"
b11 -"
b1 7
b1 D
b1 e
b1 o
b1 )"
b0 5
b0 B
b0 c
b0 k
b0 p
b0 \"
b1 4
b1 A
b1 b
b1 j
b1 q
b1 a"
1d
b1000011 l
b1000 m
b111 n
b11100001100001110100000000000010 #"
b11100001100001110100000000000010 6"
b11100001100001110100000000000010 ;"
b1100 ("
b1100 O"
b1100 Y"
b10100 &"
b10100 7"
b10100 9"
b10100 ["
1$
#165
0$
#170
1+
1:
b0 *
b0 9
b0 _
b0 i
b0 t
b0 4"
b1000000011 l
b0 m
b11 &"
b11 7"
b11 9"
b11 ["
b1000 n
1$
#175
0$
#180
b10000 w
b10000 0"
b10000 ]"
b10100 x
b10100 5"
b10100 A"
b10100 D"
b10100 R"
b10100 V"
b100 v
b100 /"
b100 b"
b10100 %"
b10100 2"
b10100 3"
b10100 8"
b10100 -"
1.
0+
b0 7
b0 D
b0 e
b0 o
b0 )"
1=
0:
11
b10 *
b10 9
b10 _
b10 i
b10 t
b10 4"
b1 5
b1 B
b1 c
b1 k
b1 p
b1 \"
b10 4
b10 A
b10 b
b10 j
b10 q
b10 a"
0d
b1000101001100 l
b1 m
b0 n
1$
#185
0$
#190
b11000 x
b11000 5"
b11000 A"
b11000 D"
b11000 R"
b11000 V"
b101 z
b101 P"
b101 W"
b11 {
b11 N"
b11 X"
b11000 %"
b11000 2"
b11000 3"
b11000 8"
0.
b10 ""
b10 >"
b10 _"
b10 |
b10 M"
b10 T"
b111 }
b111 I"
b111 S"
b11000 [
b11000 g
b100 ^
b11000 -"
b10100 w
b10100 0"
b10100 ]"
b11100000000000110101000000000100 '
b11100000000000110101000000000100 -
b11100000000000110101000000000100 y
b11100000000000110101000000000100 :"
b11100000000000110101000000000100 ?"
b11100000000000110101000000000100 d"
0=
01
b100001110100000000000010 ="
b100 U"
b100 K"
b10 J"
b111 F"
b11100001100001110100 8
b10100 #
b10100 (
b10100 3
b10100 $"
b10100 B"
b10100 c"
b1001100 l
b110 m
b10100 &"
b10100 7"
b10100 9"
b10100 ["
b11100001100001110100000000000010 /
b11100001100001110100000000000010 !"
b11100001100001110100000000000010 @"
b10100 ~
b10100 C"
b10100 E"
b10100 Z"
b1 n
1$
#195
0$
#200
b11 w
b11 0"
b11 ]"
b111 x
b111 5"
b111 A"
b111 D"
b111 R"
b111 V"
b101 v
b101 /"
b101 b"
b111 %"
b111 2"
b111 3"
b111 8"
b111111111111111111111111111111110 -"
b11 7
b11 D
b11 e
b11 o
b11 )"
b0 5
b0 B
b0 c
b0 k
b0 p
b0 \"
b0 4
b0 A
b0 b
b0 j
b0 q
b0 a"
1d
b1000001 l
b1000 m
b110 n
b11100000000000110101000000000100 #"
b11100000000000110101000000000100 6"
b11100000000000110101000000000100 ;"
b11 ("
b11 O"
b11 Y"
b101 !
b101 &
b101 )
b101 u
b101 Q"
b101 ^"
b101 e"
b11000 &"
b11000 7"
b11000 9"
b11000 ["
1$
#205
0$
#210
b1 -"
b11 %"
b11 2"
b11 3"
b11 8"
b10 v
b10 /"
b10 b"
1+
1:
b0 *
b0 9
b0 _
b0 i
b0 t
b0 4"
b1 4
b1 A
b1 b
b1 j
b1 q
b1 a"
b1000000011 l
b0 m
b111 &"
b111 7"
b111 9"
b111 ["
b1000 n
1$
#215
0$
#220
b10100 w
b10100 0"
b10100 ]"
b0 V
b100 v
b100 /"
b100 b"
b0 6
b0 C
b0 K
b0 '"
b0 1"
0,"
b11000 %"
b11000 2"
b11000 3"
b11000 8"
b11000 -"
1.
0+
b0 7
b0 D
b0 e
b0 o
b0 )"
1=
0:
11
b10 *
b10 9
b10 _
b10 i
b10 t
b10 4"
b1 5
b1 B
b1 c
b1 k
b1 p
b1 \"
b10 4
b10 A
b10 b
b10 j
b10 q
b10 a"
0d
b11000 x
b11000 5"
b11000 A"
b11000 D"
b11000 R"
b11000 V"
b1000101001100 l
b1 m
b0 n
b11 &"
b11 7"
b11 9"
b11 ["
1$
#225
0$
#230
b11100 x
b11100 5"
b11100 A"
b11100 D"
b11100 R"
b11100 V"
b111 z
b111 P"
b111 W"
b1100 {
b1100 N"
b1100 X"
b11100 %"
b11100 2"
b11100 3"
b11100 8"
0.
b100 ""
b100 >"
b100 _"
b100 |
b100 M"
b100 T"
b11 }
b11 I"
b11 S"
b0 [
b0 g
b101 ^
b11100 -"
b11000 w
b11000 0"
b11000 ]"
b11100000100001010101000000000100 '
b11100000100001010101000000000100 -
b11100000100001010101000000000100 y
b11100000100001010101000000000100 :"
b11100000100001010101000000000100 ?"
b11100000100001010101000000000100 d"
0=
01
b110101000000000100 ="
b101 U"
b101 K"
b100 J"
b11 F"
b11100000000000110101 8
b11000 #
b11000 (
b11000 3
b11000 $"
b11000 B"
b11000 c"
b1001100 l
b110 m
b11000 &"
b11000 7"
b11000 9"
b11000 ["
b11100000000000110101000000000100 /
b11100000000000110101000000000100 !"
b11100000000000110101000000000100 @"
b11000 ~
b11000 C"
b11000 E"
b11000 Z"
b1 n
1$
#235
0$
#240
b1100 w
b1100 0"
b1100 ]"
b10011 -"
b0 V
b100 x
b100 5"
b100 A"
b100 D"
b100 R"
b100 V"
b111 v
b111 /"
b111 b"
b0 6
b0 C
b0 K
b0 '"
b0 1"
0,"
b100 %"
b100 2"
b100 3"
b100 8"
b10 7
b10 D
b10 e
b10 o
b10 )"
b0 5
b0 B
b0 c
b0 k
b0 p
b0 \"
b0 4
b0 A
b0 b
b0 j
b0 q
b0 a"
1d
b1000001 l
b1000 m
b110 n
b11100000100001010101000000000100 #"
b11100000100001010101000000000100 6"
b11100000100001010101000000000100 ;"
b1100 ("
b1100 O"
b1100 Y"
b111 !
b111 &
b111 )
b111 u
b111 Q"
b111 ^"
b111 e"
b11100 &"
b11100 7"
b11100 9"
b11100 ["
1$
#245
0$
#250
b10000 -"
b100 v
b100 /"
b100 b"
1+
1:
b0 *
b0 9
b0 _
b0 i
b0 t
b0 4"
b1 4
b1 A
b1 b
b1 j
b1 q
b1 a"
b1000000011 l
b0 m
b100 &"
b100 7"
b100 9"
b100 ["
b1000 n
1$
#255
0$
#260
b11100 -"
b11000 w
b11000 0"
b11000 ]"
b11100 x
b11100 5"
b11100 A"
b11100 D"
b11100 R"
b11100 V"
b11100 %"
b11100 2"
b11100 3"
b11100 8"
1.
0+
b0 7
b0 D
b0 e
b0 o
b0 )"
1=
0:
11
b10 *
b10 9
b10 _
b10 i
b10 t
b10 4"
b1 5
b1 B
b1 c
b1 k
b1 p
b1 \"
b10 4
b10 A
b10 b
b10 j
b10 q
b10 a"
0d
b1000101001100 l
b1 m
b0 n
1$
#265
0$
#270
b100000 x
b100000 5"
b100000 A"
b100000 D"
b100000 R"
b100000 V"
b100 {
b100 N"
b100 X"
b100000 %"
b100000 2"
b100000 3"
b100000 8"
0.
b101 }
b101 I"
b101 S"
b1000 [
b1000 g
b100000 -"
b11100 w
b11100 0"
b11100 ]"
b11100000010101011000000000000111 '
b11100000010101011000000000000111 -
b11100000010101011000000000000111 y
b11100000010101011000000000000111 :"
b11100000010101011000000000000111 ?"
b11100000010101011000000000000111 d"
0=
01
b100001010101000000000100 ="
b101 F"
b11100000100001010101 8
b11100 #
b11100 (
b11100 3
b11100 $"
b11100 B"
b11100 c"
b1001100 l
b110 m
b11100 &"
b11100 7"
b11100 9"
b11100 ["
b11100000100001010101000000000100 /
b11100000100001010101000000000100 !"
b11100000100001010101000000000100 @"
b11100 ~
b11100 C"
b11100 E"
b11100 Z"
b1 n
1$
#275
0$
#280
b1011 x
b1011 5"
b1011 A"
b1011 D"
b1011 R"
b1011 V"
b1011 %"
b1011 2"
b1011 3"
b1011 8"
b100 w
b100 0"
b100 ]"
b1011 -"
b111 v
b111 /"
b111 b"
b0 5
b0 B
b0 c
b0 k
b0 p
b0 \"
b0 4
b0 A
b0 b
b0 j
b0 q
b0 a"
1d
b1000001 l
b1000 m
b110 n
b11100000010101011000000000000111 #"
b11100000010101011000000000000111 6"
b11100000010101011000000000000111 ;"
b100 ("
b100 O"
b100 Y"
b100000 &"
b100000 7"
b100000 9"
b100000 ["
1$
#285
0$
#290
b1000 %"
b1000 2"
b1000 3"
b1000 8"
b1000 -"
b100 v
b100 /"
b100 b"
1+
1:
b0 *
b0 9
b0 _
b0 i
b0 t
b0 4"
b1 4
b1 A
b1 b
b1 j
b1 q
b1 a"
b1000000011 l
b0 m
b1011 &"
b1011 7"
b1011 9"
b1011 ["
b1000 n
1$
#295
0$
