src/arm_multi.vcd
$date
	Sat Jul 17 11:34:36 2021
$end
$version
	Icarus Verilog
$end
$timescale
	1s
$end
$scope module testbench $end
$var wire 32 ! WriteData [31:0] $end
$var wire 1 " MemWrite $end
$var wire 32 # Adr [31:0] $end
$var reg 1 $ clk $end
$var reg 1 % reset $end
$scope module dut $end
$var wire 1 $ clk $end
$var wire 1 % reset $end
$var wire 32 & WriteData [31:0] $end
$var wire 32 ' ReadData [31:0] $end
$var wire 1 " MemWrite $end
$var wire 32 ( Adr [31:0] $end
$scope module arm $end
$var wire 1 $ clk $end
$var wire 1 % reset $end
$var wire 32 ) WriteData [31:0] $end
$var wire 2 * ResultSrc [1:0] $end
$var wire 1 + RegWrite $end
$var wire 2 , RegSrc [1:0] $end
$var wire 32 - ReadData [31:0] $end
$var wire 1 . PCWrite $end
$var wire 1 " MemWrite $end
$var wire 32 / Instr [31:0] $end
$var wire 2 0 ImmSrc [1:0] $end
$var wire 1 1 IRWrite $end
$var wire 1 2 AdrSrc $end
$var wire 32 3 Adr [31:0] $end
$var wire 2 4 ALUSrcB [1:0] $end
$var wire 2 5 ALUSrcA [1:0] $end
$var wire 4 6 ALUFlags [3:0] $end
$var wire 2 7 ALUControl [1:0] $end
$scope module c $end
$var wire 20 8 Instr [31:12] $end
$var wire 1 $ clk $end
$var wire 1 % reset $end
$var wire 2 9 ResultSrc [1:0] $end
$var wire 1 + RegWrite $end
$var wire 1 : RegW $end
$var wire 2 ; RegSrc [1:0] $end
$var wire 1 . PCWrite $end
$var wire 1 < PCS $end
$var wire 1 = NextPC $end
$var wire 1 " MemWrite $end
$var wire 1 > MemW $end
$var wire 2 ? ImmSrc [1:0] $end
$var wire 1 1 IRWrite $end
$var wire 2 @ FlagW [1:0] $end
$var wire 1 2 AdrSrc $end
$var wire 2 A ALUSrcB [1:0] $end
$var wire 2 B ALUSrcA [1:0] $end
$var wire 4 C ALUFlags [3:0] $end
$var wire 2 D ALUControl [1:0] $end
$scope module cl $end
$var wire 4 E Cond [3:0] $end
$var wire 1 " MemWrite $end
$var wire 1 . PCWrite $end
$var wire 1 + RegWrite $end
$var wire 1 $ clk $end
$var wire 1 % reset $end
$var wire 1 : RegW $end
$var wire 1 < PCS $end
$var wire 1 = NextPC $end
$var wire 1 > MemW $end
$var wire 4 F Flags [3:0] $end
$var wire 2 G FlagWrite [1:0] $end
$var wire 2 H FlagW [1:0] $end
$var wire 1 I CondExReg $end
$var wire 1 J CondEx $end
$var wire 4 K ALUFlags [3:0] $end
$scope module cc $end
$var wire 4 L Cond [3:0] $end
$var wire 4 M Flags [3:0] $end
$var wire 1 N ge $end
$var wire 1 O zero $end
$var wire 1 P overflow $end
$var wire 1 Q neg $end
$var wire 1 R carry $end
$var reg 1 J CondEx $end
$upscope $end
$scope module condexreg $end
$var wire 1 $ clk $end
$var wire 1 J d $end
$var wire 1 % reset $end
$var reg 1 I q $end
$upscope $end
$scope module flagsreg0 $end
$var wire 1 $ clk $end
$var wire 2 S d [1:0] $end
$var wire 1 T en $end
$var wire 1 % reset $end
$var reg 2 U q [1:0] $end
$upscope $end
$scope module flagsreg1 $end
$var wire 1 $ clk $end
$var wire 2 V d [1:0] $end
$var wire 1 W en $end
$var wire 1 % reset $end
$var reg 2 X q [1:0] $end
$upscope $end
$scope module flagwritereg $end
$var wire 1 $ clk $end
$var wire 2 Y d [1:0] $end
$var wire 1 % reset $end
$var reg 2 Z q [1:0] $end
$upscope $end
$upscope $end
$scope module dec $end
$var wire 6 [ Funct [5:0] $end
$var wire 2 \ ImmSrc [1:0] $end
$var wire 2 ] Op [1:0] $end
$var wire 1 < PCS $end
$var wire 4 ^ Rd [3:0] $end
$var wire 1 $ clk $end
$var wire 1 % reset $end
$var wire 2 _ ResultSrc [1:0] $end
$var wire 1 : RegW $end
$var wire 2 ` RegSrc [1:0] $end
$var wire 1 = NextPC $end
$var wire 1 > MemW $end
$var wire 1 1 IRWrite $end
$var wire 1 a Branch $end
$var wire 1 2 AdrSrc $end
$var wire 2 b ALUSrcB [1:0] $end
$var wire 2 c ALUSrcA [1:0] $end
$var wire 1 d ALUOp $end
$var reg 2 e ALUControl [1:0] $end
$var reg 2 f FlagW [1:0] $end
$scope module fsm $end
$var wire 6 g Funct [5:0] $end
$var wire 2 h Op [1:0] $end
$var wire 1 $ clk $end
$var wire 1 % reset $end
$var wire 2 i ResultSrc [1:0] $end
$var wire 1 : RegW $end
$var wire 1 = NextPC $end
$var wire 1 > MemW $end
$var wire 1 1 IRWrite $end
$var wire 1 a Branch $end
$var wire 1 2 AdrSrc $end
$var wire 2 j ALUSrcB [1:0] $end
$var wire 2 k ALUSrcA [1:0] $end
$var wire 1 d ALUOp $end
$var reg 13 l controls [12:0] $end
$var reg 4 m nextstate [3:0] $end
$var reg 4 n state [3:0] $end
$upscope $end
$upscope $end
$upscope $end
$scope module dp $end
$var wire 2 o ALUControl [1:0] $end
$var wire 2 p ALUSrcA [1:0] $end
$var wire 2 q ALUSrcB [1:0] $end
$var wire 1 2 AdrSrc $end
$var wire 1 1 IRWrite $end
$var wire 2 r ImmSrc [1:0] $end
$var wire 1 . PCWrite $end
$var wire 2 s RegSrc [1:0] $end
$var wire 1 + RegWrite $end
$var wire 2 t ResultSrc [1:0] $end
$var wire 1 $ clk $end
$var wire 1 % reset $end
$var wire 32 u WriteData [31:0] $end
$var wire 32 v SrcB [31:0] $end
$var wire 32 w SrcA [31:0] $end
$var wire 32 x Result [31:0] $end
$var wire 32 y ReadData [31:0] $end
$var wire 32 z RD2 [31:0] $end
$var wire 32 { RD1 [31:0] $end
$var wire 4 | RA2 [3:0] $end
$var wire 4 } RA1 [3:0] $end
$var wire 32 ~ PC [31:0] $end
$var wire 32 !" Instr [31:0] $end
$var wire 32 "" ExtImm [31:0] $end
$var wire 32 #" Data [31:0] $end
$var wire 32 $" Adr [31:0] $end
$var wire 32 %" ALUResult [31:0] $end
$var wire 32 &" ALUOut [31:0] $end
$var wire 4 '" ALUFlags [3:0] $end
$var wire 32 (" A [31:0] $end
$scope module alu $end
$var wire 2 )" ALUControl [1:0] $end
$var wire 1 *" carry $end
$var wire 1 +" overflow $end
$var wire 1 ," zero $end
$var wire 33 -" sum [32:0] $end
$var wire 1 ." neg $end
$var wire 32 /" b [31:0] $end
$var wire 32 0" a [31:0] $end
$var wire 4 1" ALUFlags [3:0] $end
$var reg 32 2" Result [31:0] $end
$upscope $end
$scope module aluoutmux $end
$var wire 32 3" d2 [31:0] $end
$var wire 2 4" s [1:0] $end
$var wire 32 5" y [31:0] $end
$var wire 32 6" d1 [31:0] $end
$var wire 32 7" d0 [31:0] $end
$upscope $end
$scope module aluoutreg $end
$var wire 1 $ clk $end
$var wire 32 8" d [31:0] $end
$var wire 1 % reset $end
$var reg 32 9" q [31:0] $end
$upscope $end
$scope module datareg $end
$var wire 1 $ clk $end
$var wire 1 % reset $end
$var wire 32 :" d [31:0] $end
$var reg 32 ;" q [31:0] $end
$upscope $end
$scope module ext $end
$var wire 2 <" ImmSrc [1:0] $end
$var wire 24 =" Instr [23:0] $end
$var reg 32 >" ExtImm [31:0] $end
$upscope $end
$scope module instrreg $end
$var wire 1 $ clk $end
$var wire 1 1 en $end
$var wire 1 % reset $end
$var wire 32 ?" d [31:0] $end
$var reg 32 @" q [31:0] $end
$upscope $end
$scope module pcmux $end
$var wire 32 A" d1 [31:0] $end
$var wire 1 2 s $end
$var wire 32 B" y [31:0] $end
$var wire 32 C" d0 [31:0] $end
$upscope $end
$scope module pcreg $end
$var wire 1 $ clk $end
$var wire 32 D" d [31:0] $end
$var wire 1 . en $end
$var wire 1 % reset $end
$var reg 32 E" q [31:0] $end
$upscope $end
$scope module ra1mux $end
$var wire 4 F" d0 [3:0] $end
$var wire 4 G" d1 [3:0] $end
$var wire 1 H" s $end
$var wire 4 I" y [3:0] $end
$upscope $end
$scope module ra2mux $end
$var wire 4 J" d0 [3:0] $end
$var wire 4 K" d1 [3:0] $end
$var wire 1 L" s $end
$var wire 4 M" y [3:0] $end
$upscope $end
$scope module rd1reg $end
$var wire 1 $ clk $end
$var wire 1 % reset $end
$var wire 32 N" d [31:0] $end
$var reg 32 O" q [31:0] $end
$upscope $end
$scope module rd2reg $end
$var wire 1 $ clk $end
$var wire 1 % reset $end
$var wire 32 P" d [31:0] $end
$var reg 32 Q" q [31:0] $end
$upscope $end
$scope module rf $end
$var wire 1 $ clk $end
$var wire 32 R" r15 [31:0] $end
$var wire 4 S" ra1 [3:0] $end
$var wire 4 T" ra2 [3:0] $end
$var wire 4 U" wa3 [3:0] $end
$var wire 32 V" wd3 [31:0] $end
$var wire 1 + we3 $end
$var wire 32 W" rd2 [31:0] $end
$var wire 32 X" rd1 [31:0] $end
$upscope $end
$scope module srcAmux $end
$var wire 32 Y" d0 [31:0] $end
$var wire 32 Z" d1 [31:0] $end
$var wire 32 [" d2 [31:0] $end
$var wire 2 \" s [1:0] $end
$var wire 32 ]" y [31:0] $end
$upscope $end
$scope module srcBmux $end
$var wire 32 ^" d0 [31:0] $end
$var wire 32 _" d1 [31:0] $end
$var wire 32 `" d2 [31:0] $end
$var wire 2 a" s [1:0] $end
$var wire 32 b" y [31:0] $end
$upscope $end
$upscope $end
$upscope $end
$scope module mem $end
$var wire 32 c" a [31:0] $end
$var wire 1 $ clk $end
$var wire 32 d" rd [31:0] $end
$var wire 32 e" wd [31:0] $end
$var wire 1 " we $end
$upscope $end
$upscope $end
$upscope $end
$enddefinitions $end
#0
$dumpvars
b0 e"
b11100000010011110000000000001111 d"
b0 c"
b0 b"
b1 a"
b100 `"
b0 _"
b0 ^"
b0 ]"
b1 \"
b0 ["
b0 Z"
b0 Y"
bx X"
bx W"
b0 V"
b0 U"
b0 T"
b0 S"
b0 R"
b0 Q"
bx P"
b0 O"
bx N"
b0 M"
0L"
b0 K"
b0 J"
b0 I"
0H"
b1111 G"
b0 F"
b0 E"
b0 D"
b0 C"
b0 B"
b0 A"
b0 @"
b11100000010011110000000000001111 ?"
b0 >"
b0 ="
b0 <"
b0 ;"
b11100000010011110000000000001111 :"
b0 9"
b0 8"
b0 7"
b0 6"
b0 5"
b10 4"
b0 3"
b0 2"
b100 1"
b0 0"
b0 /"
0."
b0 -"
1,"
0+"
0*"
b0 )"
b0 ("
b100 '"
b0 &"
b0 %"
b0 $"
b0 #"
b0 ""
b0 !"
b0 ~
b0 }
b0 |
bx {
bx z
b11100000010011110000000000001111 y
b0 x
b0 w
b0 v
b0 u
b10 t
b0 s
b0 r
b10 q
b1 p
b0 o
b0 n
b1 m
b1000101001100 l
b1 k
b10 j
b10 i
b0 h
b0 g
b0 f
b0 e
0d
b1 c
b10 b
0a
b0 `
b10 _
b0 ^
b0 ]
b0 \
b0 [
b0 Z
b0 Y
b0 X
0W
b1 V
b0 U
0T
b0 S
0R
0Q
0P
0O
1N
b0 M
b0 L
b100 K
0J
0I
b0 H
b0 G
b0 F
b0 E
b0 D
b100 C
b1 B
b10 A
b0 @
b0 ?
0>
1=
0<
b0 ;
0:
b10 9
b0 8
b0 7
b100 6
b1 5
b10 4
b0 3
02
11
b0 0
b0 /
1.
b11100000010011110000000000001111 -
b0 ,
0+
b10 *
b0 )
b0 (
b11100000010011110000000000001111 '
b0 &
1%
1$
b0 #
0"
b0 !
$end
#5
0$
#10
1$
#15
0$
#20
1$
#22
0%
#25
0$
#30
b0 V
b1111 x
b1111 5"
b1111 A"
b1111 D"
b1111 R"
b1111 V"
b0 6
b0 C
b0 K
b0 '"
b0 1"
0,"
b1111 %"
b1111 2"
b1111 3"
b1111 8"
b1111 -"
b1111 v
b1111 /"
b1111 b"
b1111 z
b1111 P"
b1111 W"
b1111 {
b1111 N"
b1111 X"
1J
0.
b1111 ""
b1111 >"
b1111 _"
b1111 |
b1111 M"
b1111 T"
b1111 }
b1111 I"
b1111 S"
b100 [
b100 g
b1110 E
b1110 L
0=
01
b10011110000000000001111 ="
b1111 J"
b1111 F"
b11100000010011110000 8
b1001100 l
b110 m
bx !
bx &
bx )
bx u
bx Q"
bx ^"
bx e"
bx ("
bx O"
bx Y"
b11100000010011110000000000001111 #"
b11100000010011110000000000001111 6"
b11100000010011110000000000001111 ;"
b11100000010011110000000000001111 /
b11100000010011110000000000001111 !"
b11100000010011110000000000001111 @"
b1 n
1$
#35
0$
#40
b1 V
b0 {
b0 N"
b0 X"
b0 z
b0 P"
b0 W"
b100 6
b100 C
b100 K
b100 '"
b100 1"
1,"
b1111 w
b1111 0"
b1111 ]"
b0 x
b0 5"
b0 A"
b0 D"
b0 R"
b0 V"
b0 %"
b0 2"
b0 3"
b0 8"
b0 -"
b1 7
b1 D
b1 e
b1 o
b1 )"
b0 5
b0 B
b0 c
b0 k
b0 p
b0 \"
b0 a"
b0 4
b0 A
b0 b
b0 j
b0 q
1d
b1000001 l
b1000 m
b110 n
1I
b1111 ("
b1111 O"
b1111 Y"
b1111 !
b1111 &
b1111 )
b1111 u
b1111 Q"
b1111 ^"
b1111 e"
b1111 &"
b1111 7"
b1111 9"
b1111 ["
1$
#45
0$
#50
0+"
b0 S
0*"
0."
b1 V
b100 6
b100 C
b100 K
b100 '"
b100 1"
1,"
b0 %"
b0 2"
b0 3"
b0 8"
1+
b0 v
b0 /"
b0 b"
b0 -"
b0 w
b0 0"
b0 ]"
1:
b0 *
b0 9
b0 _
b0 i
b0 t
b0 4"
b1 4
b1 A
b1 b
b1 j
b1 q
b1000000011 l
b0 m
b0 &"
b0 7"
b0 9"
b0 ["
b0 !
b0 &
b0 )
b0 u
b0 Q"
b0 ^"
b0 e"
b0 ("
b0 O"
b0 Y"
b1000 n
1$
#55
0$
#60
b0 S
0*"
b1111 {
b1111 N"
b1111 X"
b1111 z
b1111 P"
b1111 W"
b1111 v
b1111 /"
b1111 b"
0."
b0 V
b1111 x
b1111 5"
b1111 A"
b1111 D"
b1111 R"
b1111 V"
b0 6
b0 C
b0 K
b0 '"
b0 1"
0,"
b1111 %"
b1111 2"
b1111 3"
b1111 8"
b1111 -"
1.
0+
b0 7
b0 D
b0 e
b0 o
b0 )"
1=
0:
11
b10 *
b10 9
b10 _
b10 i
b10 t
b10 4"
b1 5
b1 B
b1 c
b1 k
b1 p
b1 \"
b1 a"
b10 4
b10 A
b10 b
b10 j
b10 q
0d
b1000101001100 l
b1 m
b0 n
1$
#65
0$
#70
b11110 {
b11110 N"
b11110 X"
b11110 z
b11110 P"
b11110 W"
b11110 x
b11110 5"
b11110 A"
b11110 D"
b11110 R"
b11110 V"
b11110 %"
b11110 2"
b11110 3"
b11110 8"
0.
b11110 -"
b1111 w
b1111 0"
b1111 ]"
b11100010010000110111000000001001 '
b11100010010000110111000000001001 -
b11100010010000110111000000001001 y
b11100010010000110111000000001001 :"
b11100010010000110111000000001001 ?"
b11100010010000110111000000001001 d"
0=
01
b1111 #
b1111 (
b1111 3
b1111 $"
b1111 B"
b1111 c"
b1001100 l
b110 m
b1111 &"
b1111 7"
b1111 9"
b1111 ["
b1111 !
b1111 &
b1111 )
b1111 u
b1111 Q"
b1111 ^"
b1111 e"
b1111 ("
b1111 O"
b1111 Y"
b1111 ~
b1111 C"
b1111 E"
b1111 Z"
b1 n
1$
#75
0$
#80
b1 V
b100 6
b100 C
b100 K
b100 '"
b100 1"
1,"
b0 {
b0 N"
b0 X"
b0 z
b0 P"
b0 W"
b11110 w
b11110 0"
b11110 ]"
b11110 v
b11110 /"
b11110 b"
b0 x
b0 5"
b0 A"
b0 D"
b0 R"
b0 V"
b0 %"
b0 2"
b0 3"
b0 8"
b0 -"
b1 7
b1 D
b1 e
b1 o
b1 )"
b0 5
b0 B
b0 c
b0 k
b0 p
b0 \"
b0 a"
b0 4
b0 A
b0 b
b0 j
b0 q
1d
b1000001 l
b1000 m
b110 n
b11100010010000110111000000001001 #"
b11100010010000110111000000001001 6"
b11100010010000110111000000001001 ;"
b11110 ("
b11110 O"
b11110 Y"
b11110 !
b11110 &
b11110 )
b11110 u
b11110 Q"
b11110 ^"
b11110 e"
b11110 &"
b11110 7"
b11110 9"
b11110 ["
1$
#85
0$
#90
0+"
b0 S
0*"
0."
b1 V
b100 6
b100 C
b100 K
b100 '"
b100 1"
1,"
b0 %"
b0 2"
b0 3"
b0 8"
1+
b0 v
b0 /"
b0 b"
b0 -"
b0 w
b0 0"
b0 ]"
1:
b0 *
b0 9
b0 _
b0 i
b0 t
b0 4"
b1 4
b1 A
b1 b
b1 j
b1 q
b1000000011 l
b0 m
b0 &"
b0 7"
b0 9"
b0 ["
b0 !
b0 &
b0 )
b0 u
b0 Q"
b0 ^"
b0 e"
b0 ("
b0 O"
b0 Y"
b1000 n
1$
#95
0$
#100
b0 S
0*"
b11110 {
b11110 N"
b11110 X"
b11110 z
b11110 P"
b11110 W"
b1111 w
b1111 0"
b1111 ]"
b1111 v
b1111 /"
b1111 b"
0."
b0 V
b11110 x
b11110 5"
b11110 A"
b11110 D"
b11110 R"
b11110 V"
b0 6
b0 C
b0 K
b0 '"
b0 1"
0,"
b11110 %"
b11110 2"
b11110 3"
b11110 8"
b11110 -"
1.
0+
b0 7
b0 D
b0 e
b0 o
b0 )"
1=
0:
11
b10 *
b10 9
b10 _
b10 i
b10 t
b10 4"
b1 5
b1 B
b1 c
b1 k
b1 p
b1 \"
b1 a"
b10 4
b10 A
b10 b
b10 j
b10 q
0d
b1000101001100 l
b1 m
b0 n
1$
#105
0$
#110
b1001 v
b1001 /"
b1001 b"
b100111 x
b100111 5"
b100111 A"
b100111 D"
b100111 R"
b100111 V"
bx z
bx P"
bx W"
bx {
bx N"
bx X"
b100111 %"
b100111 2"
b100111 3"
b100111 8"
0.
b1001 ""
b1001 >"
b1001 _"
b1001 |
b1001 M"
b1001 T"
b11 }
b11 I"
b11 S"
b100100 [
b100100 g
b111 ^
b100111 -"
b11110 w
b11110 0"
b11110 ]"
b11100000010101011000000000000111 '
b11100000010101011000000000000111 -
b11100000010101011000000000000111 y
b11100000010101011000000000000111 :"
b11100000010101011000000000000111 ?"
b11100000010101011000000000000111 d"
0=
01
b10000110111000000001001 ="
b111 U"
b111 K"
b1001 J"
b11 F"
b11100010010000110111 8
b11110 #
b11110 (
b11110 3
b11110 $"
b11110 B"
b11110 c"
b1001100 l
b111 m
b11110 &"
b11110 7"
b11110 9"
b11110 ["
b11110 !
b11110 &
b11110 )
b11110 u
b11110 Q"
b11110 ^"
b11110 e"
b11110 ("
b11110 O"
b11110 Y"
b11100010010000110111000000001001 /
b11100010010000110111000000001001 !"
b11100010010000110111000000001001 @"
b11110 ~
b11110 C"
b11110 E"
b11110 Z"
b1 n
1$
#115
0$
#120
x+"
bx S
x*"
x."
bx V
bx 6
bx C
bx K
bx '"
bx 1"
x,"
bx w
bx 0"
bx ]"
bx v
bx /"
bx b"
bx x
bx 5"
bx A"
bx D"
bx R"
bx V"
bx %"
bx 2"
bx 3"
bx 8"
bx -"
b1 7
b1 D
b1 e
b1 o
b1 )"
b0 5
b0 B
b0 c
b0 k
b0 p
b0 \"
b0 a"
b1 4
b1 A
b1 b
b1 j
b1 q
1d
b1000011 l
b1000 m
b111 n
b11100000010101011000000000000111 #"
b11100000010101011000000000000111 6"
b11100000010101011000000000000111 ;"
bx ("
bx O"
bx Y"
bx !
bx &
bx )
bx u
bx Q"
bx ^"
bx e"
b100111 &"
b100111 7"
b100111 9"
b100111 ["
1$
#125
0$
#130
1+
1:
b0 *
b0 9
b0 _
b0 i
b0 t
b0 4"
b1000000011 l
b0 m
bx &"
bx 7"
bx 9"
bx ["
b1000 n
1$
#135
0$
#140
0+"
b0 S
0*"
0."
b0 V
b100111 x
b100111 5"
b100111 A"
b100111 D"
b100111 R"
b100111 V"
b0 6
b0 C
b0 K
b0 '"
b0 1"
0,"
b100111 %"
b100111 2"
b100111 3"
b100111 8"
b100111 -"
b11110 w
b11110 0"
b11110 ]"
b1001 v
b1001 /"
b1001 b"
1.
0+
b0 7
b0 D
b0 e
b0 o
b0 )"
1=
0:
11
b10 *
b10 9
b10 _
b10 i
b10 t
b10 4"
b1 5
b1 B
b1 c
b1 k
b1 p
b1 \"
b1 a"
b10 4
b10 A
b10 b
b10 j
b10 q
0d
b1000101001100 l
b1 m
b0 n
1$
#145
0$
#150
b111 v
b111 /"
b111 b"
b101110 x
b101110 5"
b101110 A"
b101110 D"
b101110 R"
b101110 V"
b101110 %"
b101110 2"
b101110 3"
b101110 8"
0.
b111 ""
b111 >"
b111 _"
b111 |
b111 M"
b111 T"
b101 }
b101 I"
b101 S"
b101 [
b101 g
b1000 ^
b101110 -"
b100111 w
b100111 0"
b100111 ]"
b11100000010100111000000000000100 '
b11100000010100111000000000000100 -
b11100000010100111000000000000100 y
b11100000010100111000000000000100 :"
b11100000010100111000000000000100 ?"
b11100000010100111000000000000100 d"
0=
01
b10101011000000000000111 ="
b1000 U"
b1000 K"
b111 J"
b101 F"
b11100000010101011000 8
b100111 #
b100111 (
b100111 3
b100111 $"
b100111 B"
b100111 c"
b1001100 l
b110 m
b100111 &"
b100111 7"
b100111 9"
b100111 ["
b11100000010101011000000000000111 /
b11100000010101011000000000000111 !"
b11100000010101011000000000000111 @"
b100111 ~
b100111 C"
b100111 E"
b100111 Z"
b1 n
1$
#155
0$
#160
x+"
bx S
x*"
x."
bx V
bx 6
bx C
bx K
bx '"
bx 1"
x,"
bx w
bx 0"
bx ]"
bx v
bx /"
bx b"
bx x
bx 5"
bx A"
bx D"
bx R"
bx V"
b11 Y
bx %"
bx 2"
bx 3"
bx 8"
bx -"
b11 @
b11 H
b11 f
b1 7
b1 D
b1 e
b1 o
b1 )"
b0 5
b0 B
b0 c
b0 k
b0 p
b0 \"
b0 a"
b0 4
b0 A
b0 b
b0 j
b0 q
1d
b1000001 l
b1000 m
b110 n
b11100000010100111000000000000100 #"
b11100000010100111000000000000100 6"
b11100000010100111000000000000100 ;"
b101110 &"
b101110 7"
b101110 9"
b101110 ["
1$
#165
0$
#170
1+
1:
b0 *
b0 9
b0 _
b0 i
b0 t
b0 4"
b1 4
b1 A
b1 b
b1 j
b1 q
1W
1T
b1000000011 l
b0 m
bx &"
bx 7"
bx 9"
bx ["
b11 G
b11 Z
b1000 n
1$
#175
0$
#180
0+"
b0 S
0*"
0."
b0 V
b101110 x
b101110 5"
b101110 A"
b101110 D"
b101110 R"
b101110 V"
b0 6
b0 C
b0 K
b0 '"
b0 1"
0,"
b101110 %"
b101110 2"
b101110 3"
b101110 8"
b101110 -"
b100111 w
b100111 0"
b100111 ]"
b111 v
b111 /"
b111 b"
b0 Y
1.
0+
b0 @
b0 H
b0 f
b0 7
b0 D
b0 e
b0 o
b0 )"
1=
0:
11
b10 *
b10 9
b10 _
b10 i
b10 t
b10 4"
b1 5
b1 B
b1 c
b1 k
b1 p
b1 \"
b1 a"
b10 4
b10 A
b10 b
b10 j
b10 q
0d
xN
b1000101001100 l
b1 m
xR
xP
xQ
xO
b0 n
bx U
bx F
bx M
bx X
1$
#185
0$
#190
b100 v
b100 /"
b100 b"
b110010 x
b110010 5"
b110010 A"
b110010 D"
b110010 R"
b110010 V"
b110010 %"
b110010 2"
b110010 3"
b110010 8"
0.
b100 ""
b100 >"
b100 _"
b100 |
b100 M"
b100 T"
b11 }
b11 I"
b11 S"
b110010 -"
b101110 w
b101110 0"
b101110 ]"
b11100010100000000101000000000000 '
b11100010100000000101000000000000 -
b11100010100000000101000000000000 y
b11100010100000000101000000000000 :"
b11100010100000000101000000000000 ?"
b11100010100000000101000000000000 d"
1N
0=
01
b10100111000000000000100 ="
b100 J"
b11 F"
b11100000010100111000 8
b101110 #
b101110 (
b101110 3
b101110 $"
b101110 B"
b101110 c"
0Q
0O
0R
0P
0W
0T
b1001100 l
b110 m
b101110 &"
b101110 7"
b101110 9"
b101110 ["
b11100000010100111000000000000100 /
b11100000010100111000000000000100 !"
b11100000010100111000000000000100 @"
b101110 ~
b101110 C"
b101110 E"
b101110 Z"
b0 X
b0 F
b0 M
b0 U
b0 G
b0 Z
b1 n
1$
#195
0$
#200
x+"
bx S
x*"
x."
bx V
bx 6
bx C
bx K
bx '"
bx 1"
x,"
bx w
bx 0"
bx ]"
bx v
bx /"
bx b"
bx x
bx 5"
bx A"
bx D"
bx R"
bx V"
b11 Y
bx %"
bx 2"
bx 3"
bx 8"
bx -"
b11 @
b11 H
b11 f
b1 7
b1 D
b1 e
b1 o
b1 )"
b0 5
b0 B
b0 c
b0 k
b0 p
b0 \"
b0 a"
b0 4
b0 A
b0 b
b0 j
b0 q
1d
b1000001 l
b1000 m
b110 n
b11100010100000000101000000000000 #"
b11100010100000000101000000000000 6"
b11100010100000000101000000000000 ;"
b110010 &"
b110010 7"
b110010 9"
b110010 ["
1$
#205
0$
#210
1+
1:
b0 *
b0 9
b0 _
b0 i
b0 t
b0 4"
b1 4
b1 A
b1 b
b1 j
b1 q
1W
1T
b1000000011 l
b0 m
bx &"
bx 7"
bx 9"
bx ["
b11 G
b11 Z
b1000 n
1$
#215
0$
#220
0+"
b0 S
0*"
0."
b0 V
b110010 x
b110010 5"
b110010 A"
b110010 D"
b110010 R"
b110010 V"
b0 6
b0 C
b0 K
b0 '"
b0 1"
0,"
b110010 %"
b110010 2"
b110010 3"
b110010 8"
b110010 -"
b101110 w
b101110 0"
b101110 ]"
b100 v
b100 /"
b100 b"
b0 Y
1.
0+
b0 @
b0 H
b0 f
b0 7
b0 D
b0 e
b0 o
b0 )"
1=
0:
11
b10 *
b10 9
b10 _
b10 i
b10 t
b10 4"
b1 5
b1 B
b1 c
b1 k
b1 p
b1 \"
b1 a"
b10 4
b10 A
b10 b
b10 j
b10 q
0d
xN
b1000101001100 l
b1 m
xR
xP
xQ
xO
b0 n
bx U
bx F
bx M
bx X
1$
#225
0$
#230
b0 v
b0 /"
b0 b"
b110010 x
b110010 5"
b110010 A"
b110010 D"
b110010 R"
b110010 V"
b0 z
b0 P"
b0 W"
b0 {
b0 N"
b0 X"
b110010 %"
b110010 2"
b110010 3"
b110010 8"
0.
b0 ""
b0 >"
b0 _"
b0 |
b0 M"
b0 T"
b0 }
b0 I"
b0 S"
b101000 [
b101000 g
b101 ^
b110010 -"
b110010 w
b110010 0"
b110010 ]"
b11100000010101111000000000000010 '
b11100000010101111000000000000010 -
b11100000010101111000000000000010 y
b11100000010101111000000000000010 :"
b11100000010101111000000000000010 ?"
b11100000010101111000000000000010 d"
1N
0=
01
b100000000101000000000000 ="
b101 U"
b101 K"
b0 J"
b0 F"
b11100010100000000101 8
b110010 #
b110010 (
b110010 3
b110010 $"
b110010 B"
b110010 c"
0Q
0O
0R
0P
0W
0T
b1001100 l
b111 m
b110010 &"
b110010 7"
b110010 9"
b110010 ["
b11100010100000000101000000000000 /
b11100010100000000101000000000000 !"
b11100010100000000101000000000000 @"
b110010 ~
b110010 C"
b110010 E"
b110010 Z"
b0 X
b0 F
b0 M
b0 U
b0 G
b0 Z
b1 n
1$
#235
0$
#240
b1 V
b0 x
b0 5"
b0 A"
b0 D"
b0 R"
b0 V"
b100 6
b100 C
b100 K
b100 '"
b100 1"
1,"
b0 %"
b0 2"
b0 3"
b0 8"
b0 -"
b0 w
b0 0"
b0 ]"
b0 5
b0 B
b0 c
b0 k
b0 p
b0 \"
b0 a"
b1 4
b1 A
b1 b
b1 j
b1 q
1d
b1000011 l
b1000 m
b111 n
b11100000010101111000000000000010 #"
b11100000010101111000000000000010 6"
b11100000010101111000000000000010 ;"
b0 ("
b0 O"
b0 Y"
b0 !
b0 &
b0 )
b0 u
b0 Q"
b0 ^"
b0 e"
1$
#245
0$
#250
1+
1:
b0 *
b0 9
b0 _
b0 i
b0 t
b0 4"
b1000000011 l
b0 m
b0 &"
b0 7"
b0 9"
b0 ["
b1000 n
1$
#255
0$
#260
b0 V
b110010 x
b110010 5"
b110010 A"
b110010 D"
b110010 R"
b110010 V"
b0 6
b0 C
b0 K
b0 '"
b0 1"
0,"
b110010 %"
b110010 2"
b110010 3"
b110010 8"
b110010 -"
b110010 w
b110010 0"
b110010 ]"
1.
0+
1=
0:
11
b10 *
b10 9
b10 _
b10 i
b10 t
b10 4"
b1 5
b1 B
b1 c
b1 k
b1 p
b1 \"
b1 a"
b10 4
b10 A
b10 b
b10 j
b10 q
0d
b1000101001100 l
b1 m
b0 n
1$
#265
0$
#270
b110100 x
b110100 5"
b110100 A"
b110100 D"
b110100 R"
b110100 V"
b110100 %"
b110100 2"
b110100 3"
b110100 8"
b110100 -"
b10 v
b10 /"
b10 b"
bx z
bx P"
bx W"
bx {
bx N"
bx X"
0.
b10 ""
b10 >"
b10 _"
b10 |
b10 M"
b10 T"
b111 }
b111 I"
b111 S"
b101 [
b101 g
b1000 ^
0=
01
b10101111000000000000010 ="
b1000 U"
b1000 K"
b10 J"
b111 F"
b11100000010101111000 8
b1001100 l
b110 m
b110010 &"
b110010 7"
b110010 9"
b110010 ["
b11100000010101111000000000000010 /
b11100000010101111000000000000010 !"
b11100000010101111000000000000010 @"
b1 n
1$
#275
0$
#280
x+"
bx S
x*"
x."
bx V
bx 6
bx C
bx K
bx '"
bx 1"
x,"
bx w
bx 0"
bx ]"
bx v
bx /"
bx b"
bx x
bx 5"
bx A"
bx D"
bx R"
bx V"
b11 Y
bx %"
bx 2"
bx 3"
bx 8"
bx -"
b11 @
b11 H
b11 f
b1 7
b1 D
b1 e
b1 o
b1 )"
b0 5
b0 B
b0 c
b0 k
b0 p
b0 \"
b0 a"
b0 4
b0 A
b0 b
b0 j
b0 q
1d
b1000001 l
b1000 m
b110 n
bx ("
bx O"
bx Y"
bx !
bx &
bx )
bx u
bx Q"
bx ^"
bx e"
b110100 &"
b110100 7"
b110100 9"
b110100 ["
1$
#285
0$
